if_add_proc_simple/testbench.vcd
$date
	Wed Nov  6 13:12:29 2024
$end
$version
	Icarus Verilog
$end
$timescale
	1s
$end
$scope module testbench $end
$var wire 1 ! if_add_proc_simple__output_vld $end
$var wire 32 " if_add_proc_simple__output [31:0] $end
$var wire 1 # if_add_proc_simple__input_b_rdy $end
$var wire 1 $ if_add_proc_simple__input_a_rdy $end
$var reg 1 % __last_cycle_of_reset $end
$var reg 1 & __thread_output_if_add_proc_simple__output_capture_done $end
$var reg 1 ' clk $end
$var reg 32 ( if_add_proc_simple__input_a [31:0] $end
$var reg 1 ) if_add_proc_simple__input_a_vld $end
$var reg 32 * if_add_proc_simple__input_b [31:0] $end
$var reg 1 + if_add_proc_simple__input_b_vld $end
$var reg 1 , if_add_proc_simple__output_rdy $end
$var reg 1 - reset $end
$scope module dut $end
$var wire 8 . F32_ZERO__1_bexp__1 [7:0] $end
$var wire 8 / F32_ZERO__1_bexp__2 [7:0] $end
$var wire 8 0 F32_ZERO__1_bexp__3 [7:0] $end
$var wire 8 1 F32_ZERO__1_bexp__4 [7:0] $end
$var wire 8 2 F32_ZERO__1_bexp__5 [7:0] $end
$var wire 8 3 F32_ZERO__1_bexp__6 [7:0] $end
$var wire 8 4 F32_ZERO__1_bexp__7 [7:0] $end
$var wire 23 5 FRACTION_HIGH_BIT [22:0] $end
$var wire 23 6 FRACTION_HIGH_BIT__1 [22:0] $end
$var wire 23 7 FRACTION_HIGH_BIT__2 [22:0] $end
$var wire 8 8 MAX_EXPONENT [7:0] $end
$var wire 8 9 MAX_EXPONENT__1 [7:0] $end
$var wire 8 : MAX_EXPONENT__2 [7:0] $end
$var wire 8 ; MAX_EXPONENT__3 [7:0] $end
$var wire 8 < MAX_EXPONENT__4 [7:0] $end
$var wire 8 = MAX_EXPONENT__5 [7:0] $end
$var wire 8 > MAX_EXPONENT__6 [7:0] $end
$var wire 8 ? MAX_EXPONENT__7 [7:0] $end
$var wire 32 @ __if_add_proc_simple__input_a_reg_init [31:0] $end
$var wire 32 A __if_add_proc_simple__input_b_reg_init [31:0] $end
$var wire 32 B __if_add_proc_simple__output_reg_init [31:0] $end
$var wire 3 C addend_x__2_squeezed_const_lsb_bits [2:0] $end
$var wire 3 D addend_x__2_squeezed_const_lsb_bits__1 [2:0] $end
$var wire 3 E addend_x__2_squeezed_const_lsb_bits__2 [2:0] $end
$var wire 3 F addend_x__2_squeezed_const_lsb_bits__3 [2:0] $end
$var wire 1 G and_24471 $end
$var wire 1 H and_24473 $end
$var wire 1 I and_24479 $end
$var wire 1 J and_24486 $end
$var wire 1 K and_24491 $end
$var wire 1 L and_24500 $end
$var wire 1 M and_24518 $end
$var wire 1 N and_24536 $end
$var wire 1 O and_24538 $end
$var wire 1 P and_24545 $end
$var wire 1 Q and_24572 $end
$var wire 1 R and_24820 $end
$var wire 1 S and_24822 $end
$var wire 1 T and_24828 $end
$var wire 1 U and_24835 $end
$var wire 1 V and_24840 $end
$var wire 1 W and_24849 $end
$var wire 1 X and_24867 $end
$var wire 1 Y and_24885 $end
$var wire 1 Z and_24887 $end
$var wire 1 [ and_24894 $end
$var wire 1 \ and_24921 $end
$var wire 1 ] and_25046 $end
$var wire 1 ^ and_25090 $end
$var wire 1 _ and_25147 $end
$var wire 1 ` and_25148 $end
$var wire 1 a and_25149 $end
$var wire 1 b and_25150 $end
$var wire 1 c and_25151 $end
$var wire 1 ' clk $end
$var wire 1 d do_round_up $end
$var wire 1 e do_round_up__1 $end
$var wire 1 f fraction_is_zero $end
$var wire 1 g fraction_is_zero__1 $end
$var wire 3 h fraction_shift__2 [2:0] $end
$var wire 3 i fraction_shift__3 [2:0] $end
$var wire 3 j fraction_shift__4 [2:0] $end
$var wire 3 k fraction_shift__5 [2:0] $end
$var wire 3 l fraction_shift__7 [2:0] $end
$var wire 3 m fraction_shift__8 [2:0] $end
$var wire 24 n fraction_x__1 [23:0] $end
$var wire 24 o fraction_x__3 [23:0] $end
$var wire 24 p fraction_y__1 [23:0] $end
$var wire 24 q fraction_y__3 [23:0] $end
$var wire 1 r has_neg_inf $end
$var wire 1 s has_neg_inf__1 $end
$var wire 1 t has_pos_inf $end
$var wire 1 u has_pos_inf__1 $end
$var wire 32 v if_add_proc_simple__input_a [31:0] $end
$var wire 1 w if_add_proc_simple__input_a_load_en $end
$var wire 1 $ if_add_proc_simple__input_a_rdy $end
$var wire 1 x if_add_proc_simple__input_a_valid_inv $end
$var wire 1 y if_add_proc_simple__input_a_valid_load_en $end
$var wire 1 ) if_add_proc_simple__input_a_vld $end
$var wire 32 z if_add_proc_simple__input_b [31:0] $end
$var wire 1 { if_add_proc_simple__input_b_load_en $end
$var wire 1 # if_add_proc_simple__input_b_rdy $end
$var wire 1 | if_add_proc_simple__input_b_valid_inv $end
$var wire 1 } if_add_proc_simple__input_b_valid_load_en $end
$var wire 1 + if_add_proc_simple__input_b_vld $end
$var wire 32 ~ if_add_proc_simple__output [31:0] $end
$var wire 1 !" if_add_proc_simple__output_load_en $end
$var wire 1 , if_add_proc_simple__output_rdy $end
$var wire 1 "" if_add_proc_simple__output_valid_inv $end
$var wire 1 #" if_add_proc_simple__output_valid_load_en $end
$var wire 1 ! if_add_proc_simple__output_vld $end
$var wire 1 $" is_operand_inf $end
$var wire 1 %" is_operand_inf__1 $end
$var wire 1 &" is_result_nan $end
$var wire 1 '" is_result_nan__1 $end
$var wire 1 (" nor_24443 $end
$var wire 1 )" nor_24444 $end
$var wire 1 *" nor_24446 $end
$var wire 1 +" nor_24447 $end
$var wire 1 ," nor_24452 $end
$var wire 1 -" nor_24453 $end
$var wire 1 ." nor_24458 $end
$var wire 1 /" nor_24461 $end
$var wire 1 0" nor_24462 $end
$var wire 1 1" nor_24463 $end
$var wire 1 2" nor_24469 $end
$var wire 1 3" nor_24470 $end
$var wire 1 4" nor_24478 $end
$var wire 1 5" nor_24482 $end
$var wire 1 6" nor_24487 $end
$var wire 1 7" nor_24493 $end
$var wire 1 8" nor_24544 $end
$var wire 1 9" nor_24792 $end
$var wire 1 :" nor_24793 $end
$var wire 1 ;" nor_24795 $end
$var wire 1 <" nor_24796 $end
$var wire 1 =" nor_24801 $end
$var wire 1 >" nor_24802 $end
$var wire 1 ?" nor_24807 $end
$var wire 1 @" nor_24810 $end
$var wire 1 A" nor_24811 $end
$var wire 1 B" nor_24812 $end
$var wire 1 C" nor_24818 $end
$var wire 1 D" nor_24819 $end
$var wire 1 E" nor_24827 $end
$var wire 1 F" nor_24831 $end
$var wire 1 G" nor_24836 $end
$var wire 1 H" nor_24842 $end
$var wire 1 I" nor_24893 $end
$var wire 8 J" one_hot_sel_25097 [7:0] $end
$var wire 23 K" one_hot_sel_25106 [22:0] $end
$var wire 1 L" or_25015 $end
$var wire 1 M" or_25037 $end
$var wire 1 N" or_25041 $end
$var wire 1 O" or_25098 $end
$var wire 1 P" or_25107 $end
$var wire 1 Q" p0_all_active_inputs_valid $end
$var wire 1 R" p0_data_enable $end
$var wire 1 S" p0_enable $end
$var wire 1 T" p1_not_valid $end
$var wire 1 U" p1_stage_done $end
$var wire 1 - reset $end
$var wire 23 V" result_fraction__3 [22:0] $end
$var wire 23 W" result_fraction__8 [22:0] $end
$var wire 1 X" result_sign__2 $end
$var wire 1 Y" result_sign__5 $end
$var wire 10 Z" wide_exponent__1 [9:0] $end
$var wire 9 [" wide_exponent__2 [8:0] $end
$var wire 10 \" wide_exponent__4 [9:0] $end
$var wire 9 ]" wide_exponent__5 [8:0] $end
$var wire 28 ^" wide_y__1 [27:0] $end
$var wire 28 _" wide_y [27:0] $end
$var wire 25 `" wide_x_squeezed [24:0] $end
$var wire 25 a" wide_x__1_squeezed [24:0] $end
$var wire 28 b" wide_x__1 [27:0] $end
$var wire 28 c" wide_x [27:0] $end
$var wire 10 d" wide_exponent__3 [9:0] $end
$var wire 10 e" wide_exponent [9:0] $end
$var wire 1 f" tuple_index_24379 $end
$var wire 23 g" tuple_index_24355 [22:0] $end
$var wire 9 h" sum__1 [8:0] $end
$var wire 9 i" sum [8:0] $end
$var wire 1 j" sticky__1 $end
$var wire 1 k" sticky $end
$var wire 24 l" sign_ext_24725 [23:0] $end
$var wire 24 m" sign_ext_24375 [23:0] $end
$var wire 28 n" shrl_25024 [27:0] $end
$var wire 28 o" shrl_24744 [27:0] $end
$var wire 28 p" shrl_24672 [27:0] $end
$var wire 28 q" shrl_24395 [27:0] $end
$var wire 27 r" shifted_fraction__1 [26:0] $end
$var wire 27 s" shifted_fraction [26:0] $end
$var wire 1 t" rounding_carry__1 $end
$var wire 1 u" rounding_carry $end
$var wire 25 v" rounded_fraction_squeezed_portion_3_width_25 [24:0] $end
$var wire 25 w" rounded_fraction__1_squeezed_portion_3_width_25 [24:0] $end
$var wire 28 x" rounded_fraction__1 [27:0] $end
$var wire 28 y" rounded_fraction [27:0] $end
$var wire 1 z" result_sign__4 $end
$var wire 1 {" result_sign__3 $end
$var wire 1 |" result_sign__1 $end
$var wire 1 }" result_sign $end
$var wire 23 ~" result_fraction__9 [22:0] $end
$var wire 23 !# result_fraction__5 [22:0] $end
$var wire 23 "# result_fraction__4 [22:0] $end
$var wire 23 ## result_fraction [22:0] $end
$var wire 8 $# result_exponent__2 [7:0] $end
$var wire 8 %# result_exponent__1 [7:0] $end
$var wire 2 &# priority_sel_24901 [1:0] $end
$var wire 2 '# priority_sel_24552 [1:0] $end
$var wire 3 (# normal_chunk__1 [2:0] $end
$var wire 3 )# normal_chunk [2:0] $end
$var wire 28 *# neg_24737 [27:0] $end
$var wire 28 +# neg_24388 [27:0] $end
$var wire 4 ,# leading_zeroes__1__0_to_4 [3:0] $end
$var wire 5 -# leading_zeroes__1 [4:0] $end
$var wire 4 .# leading_zeroes__0_to_4 [3:0] $end
$var wire 5 /# leading_zeroes [4:0] $end
$var wire 8 0# incremented_sum__3 [7:0] $end
$var wire 8 1# incremented_sum__2 [7:0] $end
$var wire 2 2# half_way_chunk__1 [1:0] $end
$var wire 2 3# half_way_chunk [1:0] $end
$var wire 1 4# gt_fraction $end
$var wire 24 5# fraction_y__2 [23:0] $end
$var wire 24 6# fraction_y [23:0] $end
$var wire 24 7# fraction_x__2 [23:0] $end
$var wire 24 8# fraction_x [23:0] $end
$var wire 3 9# fraction_shift__6 [2:0] $end
$var wire 3 :# fraction_shift__1 [2:0] $end
$var wire 1 ;# eq_exp $end
$var wire 1 <# eq_24988 $end
$var wire 1 =# eq_24987 $end
$var wire 1 ># eq_24986 $end
$var wire 1 ?# eq_24985 $end
$var wire 1 @# eq_24634 $end
$var wire 1 A# eq_24633 $end
$var wire 1 B# eq_24632 $end
$var wire 1 C# eq_24631 $end
$var wire 1 D# diff_sign $end
$var wire 23 E# diff_fraction [22:0] $end
$var wire 8 F# diff_bexp [7:0] $end
$var wire 3 G# concat_25105 [2:0] $end
$var wire 2 H# concat_25096 [1:0] $end
$var wire 25 I# concat_24948 [24:0] $end
$var wire 28 J# concat_24760 [27:0] $end
$var wire 25 K# concat_24599 [24:0] $end
$var wire 28 L# concat_24411 [27:0] $end
$var wire 27 M# carry_fraction__3 [26:0] $end
$var wire 27 N# carry_fraction__1 [26:0] $end
$var wire 1 O# carry_bit__1 $end
$var wire 1 P# carry_bit $end
$var wire 27 Q# cancel_fraction__3 [26:0] $end
$var wire 29 R# cancel_fraction__2 [28:0] $end
$var wire 27 S# cancel_fraction__1 [26:0] $end
$var wire 29 T# cancel_fraction [28:0] $end
$var wire 1 U# b_sign__3 $end
$var wire 1 V# b_sign__2 $end
$var wire 23 W# b_fraction__5 [22:0] $end
$var wire 23 X# b_fraction__4 [22:0] $end
$var wire 8 Y# b_bexp__5 [7:0] $end
$var wire 8 Z# b_bexp__4 [7:0] $end
$var wire 1 [# and_reduce_25007 $end
$var wire 1 \# and_reduce_24660 $end
$var wire 25 ]# addend_x__2_squeezed [24:0] $end
$var wire 10 ^# add_24970 [9:0] $end
$var wire 9 _# add_24962 [8:0] $end
$var wire 25 `# add_24951 [24:0] $end
$var wire 26 a# add_24754 [25:0] $end
$var wire 28 b# add_24745 [27:0] $end
$var wire 10 c# add_24621 [9:0] $end
$var wire 9 d# add_24613 [8:0] $end
$var wire 25 e# add_24602 [24:0] $end
$var wire 26 f# add_24405 [25:0] $end
$var wire 28 g# add_24396 [27:0] $end
$var wire 32 h# acc [31:0] $end
$var wire 28 i# abs_fraction__1 [27:0] $end
$var wire 1 j# a_sign__1 $end
$var wire 23 k# a_fraction__1 [22:0] $end
$var wire 8 l# a_bexpbs_difference__2 [7:0] $end
$var wire 8 m# a_bexp__4 [7:0] $end
$var wire 8 n# a_bexp__2 [7:0] $end
$var wire 25 o# __stateddend_x__1_squeezed [24:0] $end
$var wire 28 p# __statebs_fraction [27:0] $end
$var wire 1 q# __state_sign $end
$var wire 23 r# __state_fraction [22:0] $end
$var wire 8 s# __state_bexpbs_difference__1 [7:0] $end
$var wire 8 t# __state_bexp [7:0] $end
$var reg 1 u# ____state_0 $end
$var reg 8 v# ____state_1 [7:0] $end
$var reg 23 w# ____state_2 [22:0] $end
$var reg 32 x# __if_add_proc_simple__input_a_reg [31:0] $end
$var reg 1 y# __if_add_proc_simple__input_a_valid_reg $end
$var reg 32 z# __if_add_proc_simple__input_b_reg [31:0] $end
$var reg 1 {# __if_add_proc_simple__input_b_valid_reg $end
$var reg 32 |# __if_add_proc_simple__output_reg [31:0] $end
$var reg 1 }# __if_add_proc_simple__output_valid_reg $end
$var reg 8 ~# p0_result_exponent__2 [7:0] $end
$var reg 23 !$ p0_result_fraction__4 [22:0] $end
$var reg 1 "$ p0_result_sign__2 $end
$var reg 1 #$ p0_valid $end
$scope function priority_sel_1b_2way $end
$upscope $end
$scope function priority_sel_1b_3way $end
$upscope $end
$scope function priority_sel_1b_4way $end
$upscope $end
$scope function priority_sel_2b_2way $end
$upscope $end
$scope function priority_sel_2b_4way $end
$upscope $end
$scope function priority_sel_3b_2way $end
$upscope $end
$scope function priority_sel_4b_2way $end
$upscope $end
$upscope $end
$upscope $end
$enddefinitions $end
$comment Show the parameter values. $end
$dumpall
$end
#0
$dumpvars
x#$
x"$
bx !$
bx ~#
x}#
bx |#
x{#
bx z#
xy#
bx x#
bx w#
bx v#
xu#
bx t#
bx s#
bx r#
xq#
bx p#
bx o#
bx n#
bx m#
bx l#
bx k#
xj#
bx i#
bx h#
bx g#
bx f#
bx e#
bx d#
bx c#
bx b#
bx a#
bx `#
bx _#
bx ^#
bx ]#
x\#
x[#
bx Z#
bx Y#
bx X#
bx W#
xV#
xU#
bx T#
bx S#
bx R#
bx Q#
xP#
xO#
bx N#
bx M#
bx L#
b0xxxxxxxxxxxxxxxxxxxxxxxx K#
bx J#
b0xxxxxxxxxxxxxxxxxxxxxxxx I#
bx H#
bx G#
bx F#
bx E#
xD#
xC#
xB#
xA#
x@#
x?#
x>#
x=#
x<#
x;#
bx :#
bx 9#
b1xxxxxxxxxxxxxxxxxxxxxxx 8#
b1xxxxxxxxxxxxxxxxxxxxxxx 7#
b1xxxxxxxxxxxxxxxxxxxxxxx 6#
b1xxxxxxxxxxxxxxxxxxxxxxx 5#
x4#
bx 3#
bx 2#
bx 1#
bx 0#
bx /#
bx .#
bx -#
bx ,#
bx +#
bx *#
bx )#
bx (#
bx '#
bx &#
bx %#
bx $#
bx ##
bx "#
bx !#
bx ~"
x}"
x|"
x{"
xz"
bx y"
bx x"
bx w"
bx v"
xu"
xt"
bx s"
bx r"
bx q"
bx p"
bx o"
bx n"
bx m"
bx l"
xk"
xj"
bx i"
bx h"
bx g"
xf"
bx e"
bx d"
b0xxxxxxxxxxxxxxxxxxxxxxxx000 c"
b0xxxxxxxxxxxxxxxxxxxxxxxx000 b"
b0xxxxxxxxxxxxxxxxxxxxxxxx a"
b0xxxxxxxxxxxxxxxxxxxxxxxx `"
b0xxxxxxxxxxxxxxxxxxxxxxxx000 _"
b0xxxxxxxxxxxxxxxxxxxxxxxx000 ^"
bx ]"
bx \"
bx ["
bx Z"
xY"
xX"
bx W"
bx V"
xU"
xT"
xS"
xR"
xQ"
xP"
xO"
xN"
xM"
xL"
bx K"
bx J"
xI"
xH"
xG"
xF"
xE"
xD"
xC"
xB"
xA"
x@"
x?"
x>"
x="
x<"
x;"
x:"
x9"
x8"
x7"
x6"
x5"
x4"
x3"
x2"
x1"
x0"
x/"
x."
x-"
x,"
x+"
x*"
x)"
x("
x'"
x&"
x%"
x$"
x#"
x""
x!"
bx ~
x}
x|
0{
bx z
xy
xx
0w
bx v
xu
xt
xs
xr
bx q
bx p
bx o
bx n
b11 m
b100 l
b100 k
b100 j
b100 i
b11 h
xg
xf
xe
xd
xc
xb
xa
x`
x_
x^
x]
x\
x[
xZ
xY
xX
xW
xV
xU
xT
xS
xR
xQ
xP
xO
xN
xM
xL
xK
xJ
xI
xH
xG
b0 F
b0 E
b0 D
b0 C
b0 B
b0 A
b0 @
b11111111 ?
b11111111 >
b11111111 =
b11111111 <
b11111111 ;
b11111111 :
b11111111 9
b11111111 8
b10000000000000000000000 7
b10000000000000000000000 6
b10000000000000000000000 5
b0 4
b0 3
b0 2
b0 1
b0 0
b0 /
b0 .
1-
0,
0+
bx *
0)
bx (
0'
0&
0%
0$
0#
bx "
x!
$end
#5
b0 ##
b0 p"
b11 :#
b0 !#
b1111100101 e"
b1 c#
b0 d#
0u"
b0 n"
b11 9#
0d
b0 v"
b0 "#
b1111100101 d"
b1 ^#
b0 _#
0t"
b0 y"
b0 )#
b0 3#
b1 e#
b0 K#
b0 V"
0e
b0 w"
b0 ~"
b0 s"
b0 x"
b0 (#
b0 2#
b1 `#
b0 I#
b0 W"
b0 S#
b0 $#
b0 r"
b0 T#
b0 Q#
b0 %#
1L"
0\#
b0 R#
0M"
b1100 .#
08"
b11100 /#
1Q
b0 ["
0[#
04"
1O
b0 '#
1N
1P
0X"
b1100 ,#
0I"
b11100 -#
1\
b0 ]"
b0 h#
1G
1H
1I
1K
1L
1J
1M
b0 Z"
0|"
0E"
1Z
b0 &#
1Y
1[
0Y"
07"
1("
1)"
1*"
1+"
1,"
1-"
1."
1/"
10"
11"
12"
13"
05"
16"
0}"
1R
1S
1T
1V
1W
1U
1X
b0 \"
0z"
1f
0H"
19"
1:"
1;"
1<"
1="
1>"
1?"
1@"
1A"
1B"
1C"
1D"
0F"
1G"
0{"
0P#
b0 N#
1g
b0 i#
0O#
b0 M#
0t
1]
b0 p#
b0 f#
b0 L#
0&"
0u
b0 q"
b0 g#
b0 ]#
0r
b0 J"
b0 K"
0'"
b0 a#
b0 J#
b0 l#
1j#
0U#
0k"
0$"
0P"
b0 o"
b0 b#
b0 1#
b0 +#
b0 c"
b0 `"
b0 n
b0 _"
b0 p
0O"
0s
b0 o#
0j"
0%"
b0 s#
1#"
1y
1}
0R"
0C#
b0 m#
b0 m"
0A#
b0 Y#
b11111111 i"
b100000000000000000000000 8#
1B#
b0 k#
b100000000000000000000000 6#
1@#
b0 W#
1S"
0_
b0 H#
0`
0a
0b
b0 G#
0c
b0 *#
b0 b"
b0 a"
b0 o
b0 ^"
b0 q
0^
b0 0#
1""
1x
b0 n#
b0 g"
0f"
1|
0Q"
b0 Z#
b0 X#
0V#
1T"
0U"
0!"
0q#
0D#
b100000000000000000000000 7#
1>#
b0 r#
b100000000000000000000000 5#
1<#
b0 E#
0?#
b0 t#
b0 l"
0=#
b0 F#
1N"
b11111111 h"
0!
0}#
b0 "
b0 ~
b0 |#
0y#
b0 x#
0{#
b0 z#
0#$
0u#
b0 w#
b0 v#
0"$
04#
b0 !$
1;#
b0 ~#
1'
#10
0'
#15
1'
#20
0'
#25
1'
#30
0'
#35
1'
#40
0'
#45
1'
#46
1%
#50
0'
#55
1'
#56
1#
1{
1$
1w
0-
0%
1,
1+
b0 *
b0 z
1)
b111111100000000000000000000000 (
b111111100000000000000000000000 v
#60
0'
#65
b100000000000000000000000000 S#
b1000000000000000000000000000 T#
b1 .#
b1 /#
0Q
b1111111 $#
b0 ##
0N
b1 '#
17"
b100000000000000000000000 p"
b100000000000000000000000000 y"
b100000000000000000000000 v"
0K
b1111111 ["
b100000000000000000000001 e#
b100000000000000000000000 K#
00"
b100000000000000000000000000 s"
b1111111 Z"
0P#
b10000000000000000000000000 N#
b100000000000000000000000000 i#
0f
b1100000000000000000000000000 L#
b11100000000000000000000000 f#
b1100000000000000000000000 ]#
b1100000000000000000000000000 +#
b100000000000000000000000000 c"
b100000000000000000000000 `"
b100000000000000000000000 n
b1111111111111111111111111111 g#
b1111111 e"
b10000000 c#
b1111111 d#
b1111111 m#
b1111111 l#
0j#
1U#
b0 _"
b0 p
b1111111 1#
b0 m"
b0 Y#
1R"
0x
b101111110 i"
b1111111 n#
0|
1Q"
1y#
b111111100000000000000000000000 x#
1{#
1'
#70
0'
#75
b100000000000000000000000 n"
b100000000000000000000000000 x"
b100000000000000000000000 w"
b100000000000000000000001 `#
b100000000000000000000000 I#
1b
b100000000000000000000000000 r"
b100000000000000000000000000 Q#
b1000000000000000000000000000 R#
0L"
b1 ,#
b111111100000000000000000000000 h#
b1111111 J"
b1 -#
0\
b1111111 %#
0Y
0V
b1 &#
1H"
b1111111 ]"
0A"
b1111111 \"
b10000000000000000000000000 M#
b100000000000000000000000000 p#
0g
b1111111111111111111111111111 b#
b100000000000000000000000000 J#
b1111111 s#
1O"
1P"
b100000000000000000000000 a#
b100000000000000000000000 o#
b10 H#
1_
b10 G#
0c
1^
b1100000000000000000000000000 *#
b100000000000000000000000000 b"
b100000000000000000000000 a"
b100000000000000000000000 o
b10000001 0#
0T"
1U"
1!"
b1111111 d"
b10000000 ^#
b1111111 _#
b1111111 t#
b10000000 h"
1#$
0;#
b1111111 ~#
1'
#80
0'
#85
b1000000000000000000000000000000 h#
b10000000 J"
b10000000 %#
b10000000 ]"
b10000000 \"
b0 -#
b10000000 d"
b0 ,#
b0 &#
0H"
1S
b100000000000000000000000000 x"
b0 (#
1O#
1;"
b100000000000000000000000000 r"
b100000000000000000000000000 Q#
b100000000000000000000000000 M#
b1000000000000000000000000000 R#
b1000000000000000000000000 a#
b1000000000000000000000000000 p#
b100000000000000000000000000 o"
b0 b#
b1000000000000000000000000000 J#
b0 s#
0j"
b100000000000000000000000000 ^"
b100000000000000000000000 q
0""
b0 0#
b111111111111111111111111 l"
b1111111 F#
1!
1}#
b111111100000000000000000000000 "
b111111100000000000000000000000 ~
b111111100000000000000000000000 |#
b11111111 h"
b1111111 v#
1'
#86
b0 (
b0 v
b111111100000000000000000000000 *
b111111100000000000000000000000 z
#90
0'
#95
b10000000000000000000000 K"
b10000000000000000000000 ~"
b0 "#
0Q
b10000000000000000000000 W"
b0 V"
0N
b1 /#
b1 .#
08"
b0 ##
b1 -#
b1 ,#
b10000000000000000000000 !#
0K
04"
1O
1P
0d
b100000000000000000000000 p"
b100000000000000000000000 v"
b110000000000000000000000 n"
b110000000000000000000000000 x"
b110000000000000000000000 w"
1G
1H
1I
b1 '#
1L
1J
1M
17"
b100000000000000000000000000 y"
b0 )#
b0 3#
b100000000000000000000001 e#
b100000000000000000000000 K#
b1 &#
b110000000000000000000001 `#
b110000000000000000000000 I#
0P#
1("
1)"
1*"
1+"
1,"
1-"
1."
1/"
00"
11"
12"
13"
16"
b100000000000000000000000000 s"
1H"
0B"
b110000000000000000000000000 r"
b100000000000000000000000000 S#
b1000000010000000000000000000000 h#
b10000000 J"
b110000000000000000000000000 Q#
b1111111 $#
b1000000000000000000000000000 T#
b10000000000000000000000000 N#
b10000000 %#
0O#
b1100000000000000000000000000 R#
b11000000000000000000000000 M#
1X"
b100000000000000000000000000 i#
b110000000000000000000000000 p#
1|"
b11100000000000000000000000 f#
b1100000000000000000000000 ]#
b1111111 ["
b1100000000000000000000000000 L#
b10000000 ]"
b110000000000000000000000000 J#
1}"
0k"
b110000000000000000000000 a#
1j#
0U#
b1100000000000000000000000000 +#
b100000000000000000000000000 c"
b100000000000000000000000 `"
b100000000000000000000000 n
b1111111 Z"
b0 _"
b0 p
b10000000 \"
b10000000000000000000000000 o"
b1 b#
b10000001 1#
b1111111 e"
b10000000 c#
b1111111 d#
b1111111 m#
b0 m"
b0 Y#
b10000000 d"
b10000001 ^#
b10000000 _#
b10000000 t#
b1 s#
b10000000 i"
b0 n#
b1111111 Z#
b1 0#
b1111111 F#
b1000000000000000000000000000000 "
b1000000000000000000000000000000 ~
b1000000000000000000000000000000 |#
b0 x#
b111111100000000000000000000000 z#
b100000000 h"
b10000000 v#
1'
#100
0'
#105
b10000000 %#
b10000000 ]"
b0 ~"
b10000000 \"
b0 W"
b1 -#
b10000000 d"
b1 ,#
b0 !#
b0 K"
1B"
b100000000000000000000000 n"
b100000000000000000000000000 x"
b100000000000000000000000 w"
b1 &#
b100000000000000000000000000 Q#
b100000000000000000000001 `#
b100000000000000000000000 I#
1H"
0P"
b0 J"
b100000000000000000000000000 r"
0O#
b1000000000000000000000000000 R#
b10000000000000000000000000 M#
b0 G#
0b
0O"
b100000000000000000000000000 p#
b0 H#
0_
0Y"
b1100000000000000000000000000 J#
0]
0^
0z"
b11100000000000000000000000 a#
b1010000000000000000000000 o#
0N"
b1010000000000000000000000000 *#
b110000000000000000000000000 b"
b110000000000000000000000 a"
b110000000000000000000000 o
0{"
b110000000000000000000000 7#
0>#
b10000000000000000000000 r#
1D#
b1000000010000000000000000000000 "
b1000000010000000000000000000000 ~
b1000000010000000000000000000000 |#
b10000000000000000000000 w#
1"$
1'
#110
0'
#115
1'
#116
b0 *
b0 z
b111111100000000000000000000000 (
b111111100000000000000000000000 v
#120
0'
#125
0Q
b11 :#
b0 "#
0N
0u"
b0 V"
b1 /#
b1 .#
08"
0K
b0 ##
04"
1O
1P
00"
0d
b100000000000000000000000 p"
b100000000000000000000000 v"
b1 '#
1G
1H
1I
1L
1J
1M
b100000000000000000000000000 y"
b0 )#
b0 3#
b100000000000000000000001 e#
b100000000000000000000000 K#
17"
1("
1)"
1*"
1+"
1,"
1-"
1."
1/"
11"
12"
13"
16"
b100000000000000000000000000 s"
b100000000000000000000000000 S#
0P#
b1000000000000000000000000000 T#
b10000000000000000000000000 N#
b1111111 $#
0X"
b100000000000000000000000000 i#
0|"
b1100000000000000000000000000 L#
b11100000000000000000000000 f#
b1100000000000000000000000 ]#
b1111111 ["
0}"
0k"
0j#
1U#
b0 _"
b0 p
b1100000000000000000000000000 +#
b100000000000000000000000000 c"
b100000000000000000000000 `"
b100000000000000000000000 n
b1111111 Z"
b1111111 1#
b0 m"
b0 Y#
b1111111 e"
b10000000 c#
b1111111 d#
b1111111 m#
b101111110 i"
b1111111 n#
b0 Z#
b111111100000000000000000000000 x#
b0 z#
1'
#130
0'
#135
b10000001 %#
b10000001 ]"
b10000001 \"
b0 -#
b10000001 d"
b0 ,#
b0 &#
0H"
1P"
b10000001 J"
b100000000000000000000000000 Q#
1O#
b1000000000000000000000000000 R#
b100000000000000000000000000 M#
b10 G#
1b
1O"
b1000000000000000000000000000 p#
b10 H#
1_
0Y"
b1000000000000000000000000000 J#
1]
1^
b1000000100000000000000000000000 h#
0z"
b1000000000000000000000000 a#
b110000000000000000000000 o#
1N"
0{"
0D#
0"$
1'
#140
0'
#145
b1000000000000000000000 K"
b1000000000000000000000 ~"
b1000000000000000000000 W"
b1 -#
b1 ,#
b1000000000000000000000 !#
b101000000000000000000000 n"
b101000000000000000000000000 x"
b101000000000000000000000 w"
b1 &#
b101000000000000000000001 `#
b101000000000000000000000 I#
1H"
0B"
b101000000000000000000000000 r"
b101000000000000000000000000 Q#
b1000000101000000000000000000000 h#
b10000001 J"
0O#
b1010000000000000000000000000 R#
b10100000000000000000000000 M#
b10000001 %#
b101000000000000000000000000 p#
b101000000000000000000000000 J#
b10000001 ]"
b101000000000000000000000 a#
b100000000000000000000000 o#
b1000000000000000000000000 o"
b11 b#
b1100000000000000000000000000 *#
b100000000000000000000000000 b"
b100000000000000000000000 a"
b100000000000000000000000 o
b10 s#
b10000001 \"
b100000000000000000000000 7#
1>#
b0 r#
b10 0#
b10000001 d"
b10000010 ^#
b10000001 _#
b10000001 t#
b1000000100000000000000000000000 "
b1000000100000000000000000000000 ~
b1000000100000000000000000000000 |#
b0 w#
b100000001 h"
b10000001 v#
1'
#150
0'
#155
b10000000000000000000000 K"
b1000000110000000000000000000000 h#
b10000000000000000000000 ~"
b10000000000000000000000 W"
b10000000000000000000000 !#
b110000000000000000000000 n"
b110000000000000000000000000 x"
b110000000000000000000000 w"
b110000000000000000000001 `#
b110000000000000000000000 I#
b110000000000000000000000000 r"
b110000000000000000000000000 Q#
b1100000000000000000000000000 R#
b11000000000000000000000000 M#
b110000000000000000000000000 p#
b110000000000000000000000000 J#
b110000000000000000000000 a#
b101000000000000000000000 o#
b1011000000000000000000000000 *#
b101000000000000000000000000 b"
b101000000000000000000000 a"
b101000000000000000000000 o
b101000000000000000000000 7#
0>#
b1000000000000000000000 r#
b1000000101000000000000000000000 "
b1000000101000000000000000000000 ~
b1000000101000000000000000000000 |#
b1000000000000000000000 w#
1'
#160
0'
